<svg width="40" height="26" viewBox="0 0 40 26" fill="none" xmlns="http://www.w3.org/2000/svg">
<path d="M0 6.4C0 4.15979 0 3.03969 0.435974 2.18404C0.819467 1.43139 1.43139 0.819467 2.18404 0.435974C3.03969 0 4.15979 0 6.4 0H33.6C35.8402 0 36.9603 0 37.816 0.435974C38.5686 0.819467 39.1805 1.43139 39.564 2.18404C40 3.03969 40 4.15979 40 6.4V19.6C40 21.8402 40 22.9603 39.564 23.816C39.1805 24.5686 38.5686 25.1805 37.816 25.564C36.9603 26 35.8402 26 33.6 26H6.4C4.15979 26 3.03969 26 2.18404 25.564C1.43139 25.1805 0.819467 24.5686 0.435974 23.816C0 22.9603 0 21.8402 0 19.6V6.4Z" fill="white"/>
<rect x="5" y="14" width="9" height="6" rx="1.6" fill="#939393"/>
<rect y="5" width="40" height="5" fill="#939393"/>
<path d="M0.435974 23.816L1.32698 23.362L0.435974 23.816ZM39.564 23.816L38.673 23.362L39.564 23.816ZM37.816 25.564L37.362 24.673L37.816 25.564ZM37.816 0.435974L38.27 -0.455033L37.816 0.435974ZM39.564 2.18404L40.455 1.73005L39.564 2.18404ZM2.18404 0.435974L1.73005 -0.455033L2.18404 0.435974ZM0.435974 2.18404L-0.455033 1.73005L0.435974 2.18404ZM6.4 1H33.6V-1H6.4V1ZM39 6.4V19.6H41V6.4H39ZM33.6 25H6.4V27H33.6V25ZM1 19.6V6.4H-1V19.6H1ZM6.4 25C5.26339 25 4.47108 24.9992 3.85424 24.9488C3.24907 24.8994 2.90138 24.8072 2.63803 24.673L1.73005 26.455C2.32234 26.7568 2.96253 26.8826 3.69138 26.9422C4.40855 27.0008 5.2964 27 6.4 27V25ZM-1 19.6C-1 20.7036 -1.00078 21.5914 -0.942182 22.3086C-0.882633 23.0375 -0.75682 23.6777 -0.455033 24.27L1.32698 23.362C1.19279 23.0986 1.10062 22.7509 1.05118 22.1458C1.00078 21.5289 1 20.7366 1 19.6H-1ZM2.63803 24.673C2.07354 24.3854 1.6146 23.9265 1.32698 23.362L-0.455033 24.27C0.0243343 25.2108 0.789237 25.9757 1.73005 26.455L2.63803 24.673ZM39 19.6C39 20.7366 38.9992 21.5289 38.9488 22.1458C38.8994 22.7509 38.8072 23.0986 38.673 23.362L40.455 24.27C40.7568 23.6777 40.8826 23.0375 40.9422 22.3086C41.0008 21.5914 41 20.7036 41 19.6H39ZM33.6 27C34.7036 27 35.5914 27.0008 36.3086 26.9422C37.0375 26.8826 37.6777 26.7568 38.27 26.455L37.362 24.673C37.0986 24.8072 36.7509 24.8994 36.1458 24.9488C35.5289 24.9992 34.7366 25 33.6 25V27ZM38.673 23.362C38.3854 23.9265 37.9265 24.3854 37.362 24.673L38.27 26.455C39.2108 25.9757 39.9757 25.2108 40.455 24.27L38.673 23.362ZM33.6 1C34.7366 1 35.5289 1.00078 36.1458 1.05118C36.7509 1.10062 37.0986 1.19279 37.362 1.32698L38.27 -0.455033C37.6777 -0.75682 37.0375 -0.882633 36.3086 -0.942182C35.5914 -1.00078 34.7036 -1 33.6 -1V1ZM41 6.4C41 5.2964 41.0008 4.40855 40.9422 3.69138C40.8826 2.96253 40.7568 2.32234 40.455 1.73005L38.673 2.63803C38.8072 2.90138 38.8994 3.24907 38.9488 3.85424C38.9992 4.47108 39 5.26339 39 6.4H41ZM37.362 1.32698C37.9265 1.6146 38.3854 2.07354 38.673 2.63803L40.455 1.73005C39.9757 0.789237 39.2108 0.0243343 38.27 -0.455033L37.362 1.32698ZM6.4 -1C5.2964 -1 4.40855 -1.00078 3.69138 -0.942182C2.96253 -0.882633 2.32234 -0.75682 1.73005 -0.455033L2.63803 1.32698C2.90138 1.19279 3.24907 1.10062 3.85424 1.05118C4.47108 1.00078 5.26339 1 6.4 1V-1ZM1 6.4C1 5.26339 1.00078 4.47108 1.05118 3.85424C1.10062 3.24907 1.19279 2.90138 1.32698 2.63803L-0.455033 1.73005C-0.75682 2.32234 -0.882633 2.96253 -0.942182 3.69138C-1.00078 4.40855 -1 5.2964 -1 6.4H1ZM1.73005 -0.455033C0.789237 0.0243343 0.0243343 0.789237 -0.455033 1.73005L1.32698 2.63803C1.6146 2.07354 2.07354 1.6146 2.63803 1.32698L1.73005 -0.455033Z" fill="#939393"/>
</svg>
